{
  "handles_regression": true, 
  "is_class": true, 
  "library": "sklearn", 
  "compute_resources": {}, 
  "common_name": "ARD Regression", 
  "id": "c96d121f-9494-3682-847c-3fbee6bdd120", 
  "handles_classification": false, 
  "category": "linear_model.bayes", 
  "source_code_unanalyzed": "https://github.com/scikit-learn/scikit-learn/blob/0.18.X/sklearn/linear_model/bayes.py#L228", 
  "parameters": [
    {
      "type": "int", 
      "optional": "true", 
      "name": "n_iter", 
      "description": "Maximum number of iterations. Default is 300 "
    }, 
    {
      "type": "float", 
      "optional": "true", 
      "name": "tol", 
      "description": "Stop the algorithm if w has converged. Default is 1.e-3.  alpha_1 : float, optional Hyper-parameter : shape parameter for the Gamma distribution prior over the alpha parameter. Default is 1.e-6.  alpha_2 : float, optional Hyper-parameter : inverse scale parameter (rate parameter) for the Gamma distribution prior over the alpha parameter. Default is 1.e-6.  lambda_1 : float, optional Hyper-parameter : shape parameter for the Gamma distribution prior over the lambda parameter. Default is 1.e-6.  lambda_2 : float, optional Hyper-parameter : inverse scale parameter (rate parameter) for the Gamma distribution prior over the lambda parameter. Default is 1.e-6. "
    }, 
    {
      "type": "boolean", 
      "optional": "true", 
      "name": "compute_score", 
      "description": "If True, compute the objective function at each step of the model. Default is False. "
    }, 
    {
      "type": "float", 
      "optional": "true", 
      "name": "threshold_lambda", 
      "description": "threshold for removing (pruning) weights with high precision from the computation. Default is 1.e+4. "
    }, 
    {
      "type": "boolean", 
      "optional": "true", 
      "name": "fit_intercept", 
      "description": "whether to calculate the intercept for this model. If set to false, no intercept will be used in calculations (e.g. data is expected to be already centered). Default is True. "
    }, 
    {
      "type": "boolean", 
      "optional": "true", 
      "name": "normalize", 
      "description": "If True, the regressors X will be normalized before regression. This parameter is ignored when `fit_intercept` is set to False. When the regressors are normalized, note that this makes the hyperparameters learnt more robust and almost independent of the number of samples. The same property is not valid for standardized data. However, if you wish to standardize, please use `preprocessing.StandardScaler` before calling `fit` on an estimator with `normalize=False`.  copy_X : boolean, optional, default True. If True, X will be copied; else, it may be overwritten. "
    }, 
    {
      "type": "boolean", 
      "optional": "true", 
      "name": "verbose", 
      "description": "Verbose mode when fitting the model. "
    }
  ], 
  "input_type": [
    "DENSE", 
    "UNSIGNED_DATA"
  ], 
  "methods_available": [
    {
      "id": "sklearn.linear_model.bayes.ARDRegression.decision_function", 
      "returns": {
        "shape": "n_samples,", 
        "type": "array", 
        "name": "C", 
        "description": "Returns predicted values. '"
      }, 
      "description": "'DEPRECATED:  and will be removed in 0.19.\n\nDecision function of the linear model.\n", 
      "parameters": [
        {
          "shape": "n_samples, n_features", 
          "type": "array-like, sparse matrix", 
          "name": "X", 
          "description": "Samples. "
        }
      ], 
      "name": "decision_function"
    }, 
    {
      "id": "sklearn.linear_model.bayes.ARDRegression.fit", 
      "returns": {
        "type": "returns", 
        "name": "self", 
        "description": "'"
      }, 
      "description": "'Fit the ARDRegression model according to the given training data\nand parameters.\n\nIterative procedure to maximize the evidence\n", 
      "parameters": [
        {
          "shape": "n_samples, n_features", 
          "type": "array-like", 
          "name": "X", 
          "description": "Training vector, where n_samples in the number of samples and n_features is the number of features."
        }, 
        {
          "shape": "n_samples", 
          "type": "array", 
          "name": "y", 
          "description": "Target values (integers) "
        }
      ], 
      "name": "fit"
    }, 
    {
      "id": "sklearn.linear_model.bayes.ARDRegression.get_params", 
      "returns": {
        "type": "mapping", 
        "name": "params", 
        "description": "Parameter names mapped to their values. '"
      }, 
      "description": "'Get parameters for this estimator.\n", 
      "parameters": [
        {
          "type": "boolean", 
          "optional": "true", 
          "name": "deep", 
          "description": "If True, will return the parameters for this estimator and contained subobjects that are estimators. "
        }
      ], 
      "name": "get_params"
    }, 
    {
      "id": "sklearn.linear_model.bayes.ARDRegression.predict", 
      "returns": {
        "shape": "n_samples,", 
        "type": "array", 
        "name": "C", 
        "description": "Returns predicted values. '"
      }, 
      "description": "'Predict using the linear model\n", 
      "parameters": [
        {
          "shape": "n_samples, n_features", 
          "type": "array-like, sparse matrix", 
          "name": "X", 
          "description": "Samples. "
        }
      ], 
      "name": "predict"
    }, 
    {
      "id": "sklearn.linear_model.bayes.ARDRegression.score", 
      "returns": {
        "type": "float", 
        "name": "score", 
        "description": "R^2 of self.predict(X) wrt. y. '"
      }, 
      "description": "'Returns the coefficient of determination R^2 of the prediction.\n\nThe coefficient R^2 is defined as (1 - u/v), where u is the regression\nsum of squares ((y_true - y_pred) ** 2).sum() and v is the residual\nsum of squares ((y_true - y_true.mean()) ** 2).sum().\nBest possible score is 1.0 and it can be negative (because the\nmodel can be arbitrarily worse). A constant model that always\npredicts the expected value of y, disregarding the input features,\nwould get a R^2 score of 0.0.\n", 
      "parameters": [
        {
          "shape": "n_samples, n_features", 
          "type": "array-like", 
          "name": "X", 
          "description": "Test samples. "
        }, 
        {
          "shape": "n_samples", 
          "type": "array-like", 
          "name": "y", 
          "description": "True values for X. "
        }, 
        {
          "type": "array-like", 
          "shape": "n_samples", 
          "optional": "true", 
          "name": "sample_weight", 
          "description": "Sample weights. "
        }
      ], 
      "name": "score"
    }, 
    {
      "id": "sklearn.linear_model.bayes.ARDRegression.set_params", 
      "returns": {
        "name": "self", 
        "description": "\""
      }, 
      "description": "\"Set the parameters of this estimator.\n\nThe method works on simple estimators as well as on nested objects\n(such as pipelines). The latter have parameters of the form\n``<component>__<parameter>`` so that it's possible to update each\ncomponent of a nested object.\n", 
      "parameters": [], 
      "name": "set_params"
    }
  ], 
  "common_name_unanalyzed": "ARD Regression", 
  "schema_version": 1.0, 
  "languages": [
    "python2.7"
  ], 
  "version": "0.18.1", 
  "build": [
    {
      "type": "pip", 
      "package": "scikit-learn"
    }
  ], 
  "handles_multiclass": false, 
  "description": "'Bayesian ARD regression.\n\nFit the weights of a regression model, using an ARD prior. The weights of\nthe regression model are assumed to be in Gaussian distributions.\nAlso estimate the parameters lambda (precisions of the distributions of the\nweights) and alpha (precision of the distribution of the noise).\nThe estimation is done by an iterative procedures (Evidence Maximization)\n\nRead more in the :ref:`User Guide <bayesian_regression>`.\n", 
  "tags": [
    "linear_model", 
    "bayes", 
    "regression"
  ], 
  "algorithm_type": [
    "regression"
  ], 
  "learning_type": [
    "supervised"
  ], 
  "task_type": [
    "modeling"
  ], 
  "output_type": [
    "PREDICTIONS"
  ], 
  "source_code": "https://github.com/scikit-learn/scikit-learn/blob/0.18.X/sklearn/linear_model/bayes.py#L228", 
  "category_unanalyzed": "linear_model.bayes", 
  "name": "sklearn.linear_model.bayes.ARDRegression", 
  "handles_multilabel": false, 
  "is_deterministic": true, 
  "team": "jpl", 
  "attributes": [
    {
      "shape": "n_features", 
      "type": "array", 
      "name": "coef_", 
      "description": "Coefficients of the regression model (mean of distribution) "
    }, 
    {
      "type": "float", 
      "name": "alpha_", 
      "description": "estimated precision of the noise. "
    }, 
    {
      "shape": "n_features", 
      "type": "array", 
      "name": "lambda_", 
      "description": "estimated precisions of the weights. "
    }, 
    {
      "shape": "n_features, n_features", 
      "type": "array", 
      "name": "sigma_", 
      "description": "estimated variance-covariance matrix of the weights "
    }, 
    {
      "type": "float", 
      "name": "scores_", 
      "description": "if computed, value of the objective function (to be maximized) "
    }
  ]
}
