{
  "is_class": true, 
  "library": "sklearn", 
  "compute_resources": {}, 
  "common_name": "Min Max Scaler", 
  "id": "633d9465-08b3-3f80-9b78-c5dc435c07cc", 
  "category": "preprocessing.data", 
  "source_code_unanalyzed": "https://github.com/scikit-learn/scikit-learn/blob/0.18.X/sklearn/preprocessing/data.py#L186", 
  "parameters": [
    {
      "type": "tuple", 
      "name": "feature_range", 
      "description": "Desired range of transformed data. "
    }, 
    {
      "type": "boolean", 
      "optional": "true", 
      "name": "copy", 
      "description": "Set to False to perform inplace row normalization and avoid a copy (if the input is already a numpy array). "
    }
  ], 
  "tags": [
    "preprocessing", 
    "data"
  ], 
  "common_name_unanalyzed": "Min Max Scaler", 
  "schema_version": 1.0, 
  "languages": [
    "python2.7"
  ], 
  "version": "0.18.1", 
  "build": [
    {
      "type": "pip", 
      "package": "scikit-learn"
    }
  ], 
  "description": "'Transforms features by scaling each feature to a given range.\n\nThis estimator scales and translates each feature individually such\nthat it is in the given range on the training set, i.e. between\nzero and one.\n\nThe transformation is given by::\n\nX_std = (X - X.min(axis=0)) / (X.max(axis=0) - X.min(axis=0))\nX_scaled = X_std * (max - min) + min\n\nwhere min, max = feature_range.\n\nThis transformation is often used as an alternative to zero mean,\nunit variance scaling.\n\nRead more in the :ref:`User Guide <preprocessing_scaler>`.\n", 
  "methods_available": [
    {
      "id": "sklearn.preprocessing.data.MinMaxScaler.fit", 
      "description": "'Compute the minimum and maximum to be used for later scaling.\n", 
      "parameters": [
        {
          "shape": "n_samples, n_features", 
          "type": "array-like", 
          "name": "X", 
          "description": "The data used to compute the per-feature minimum and maximum used for later scaling along the features axis. '"
        }
      ], 
      "name": "fit"
    }, 
    {
      "id": "sklearn.preprocessing.data.MinMaxScaler.fit_transform", 
      "returns": {
        "shape": "n_samples, n_features_new", 
        "type": "numpy", 
        "name": "X_new", 
        "description": "Transformed array.  '"
      }, 
      "description": "'Fit to data, then transform it.\n\nFits transformer to X and y with optional parameters fit_params\nand returns a transformed version of X.\n", 
      "parameters": [
        {
          "shape": "n_samples, n_features", 
          "type": "numpy", 
          "name": "X", 
          "description": "Training set. "
        }, 
        {
          "shape": "n_samples", 
          "type": "numpy", 
          "name": "y", 
          "description": "Target values. "
        }
      ], 
      "name": "fit_transform"
    }, 
    {
      "id": "sklearn.preprocessing.data.MinMaxScaler.get_params", 
      "returns": {
        "type": "mapping", 
        "name": "params", 
        "description": "Parameter names mapped to their values. '"
      }, 
      "description": "'Get parameters for this estimator.\n", 
      "parameters": [
        {
          "type": "boolean", 
          "optional": "true", 
          "name": "deep", 
          "description": "If True, will return the parameters for this estimator and contained subobjects that are estimators. "
        }
      ], 
      "name": "get_params"
    }, 
    {
      "id": "sklearn.preprocessing.data.MinMaxScaler.inverse_transform", 
      "description": "'Undo the scaling of X according to feature_range.\n", 
      "parameters": [
        {
          "shape": "n_samples, n_features", 
          "type": "array-like", 
          "name": "X", 
          "description": "Input data that will be transformed. It cannot be sparse. '"
        }
      ], 
      "name": "inverse_transform"
    }, 
    {
      "id": "sklearn.preprocessing.data.MinMaxScaler.partial_fit", 
      "description": "'Online computation of min and max on X for later scaling.\nAll of X is processed as a single batch. This is intended for cases\nwhen `fit` is not feasible due to very large number of `n_samples`\nor because X is read from a continuous stream.\n", 
      "parameters": [
        {
          "shape": "n_samples, n_features", 
          "type": "array-like", 
          "name": "X", 
          "description": "The data used to compute the mean and standard deviation used for later scaling along the features axis. "
        }, 
        {
          "type": "", 
          "name": "y", 
          "description": "'"
        }
      ], 
      "name": "partial_fit"
    }, 
    {
      "id": "sklearn.preprocessing.data.MinMaxScaler.set_params", 
      "returns": {
        "name": "self", 
        "description": "\""
      }, 
      "description": "\"Set the parameters of this estimator.\n\nThe method works on simple estimators as well as on nested objects\n(such as pipelines). The latter have parameters of the form\n``<component>__<parameter>`` so that it's possible to update each\ncomponent of a nested object.\n", 
      "parameters": [], 
      "name": "set_params"
    }, 
    {
      "id": "sklearn.preprocessing.data.MinMaxScaler.transform", 
      "description": "'Scaling features of X according to feature_range.\n", 
      "parameters": [
        {
          "shape": "n_samples, n_features", 
          "type": "array-like", 
          "name": "X", 
          "description": "Input data that will be transformed. '"
        }
      ], 
      "name": "transform"
    }
  ], 
  "learning_type": [
    "supervised"
  ], 
  "task_type": [
    "modeling"
  ], 
  "source_code": "https://github.com/scikit-learn/scikit-learn/blob/0.18.X/sklearn/preprocessing/data.py#L186", 
  "category_unanalyzed": "preprocessing.data", 
  "name": "sklearn.preprocessing.data.MinMaxScaler", 
  "team": "jpl", 
  "attributes": [
    {
      "shape": "n_features,", 
      "type": "ndarray", 
      "name": "min_", 
      "description": "Per feature adjustment for minimum. "
    }, 
    {
      "shape": "n_features,", 
      "type": "ndarray", 
      "name": "scale_", 
      "description": "Per feature relative scaling of the data.  .. versionadded:: 0.17 *scale_* attribute. "
    }, 
    {
      "shape": "n_features,", 
      "type": "ndarray", 
      "name": "data_min_", 
      "description": "Per feature minimum seen in the data  .. versionadded:: 0.17 *data_min_* instead of deprecated *data_min*. "
    }, 
    {
      "shape": "n_features,", 
      "type": "ndarray", 
      "name": "data_max_", 
      "description": "Per feature maximum seen in the data  .. versionadded:: 0.17 *data_max_* instead of deprecated *data_max*. "
    }, 
    {
      "shape": "n_features,", 
      "type": "ndarray", 
      "name": "data_range_", 
      "description": "Per feature range ``(data_max_ - data_min_)`` seen in the data  .. versionadded:: 0.17 *data_range_* instead of deprecated *data_range*.  See also -------- minmax_scale: Equivalent function without the object oriented API."
    }
  ]
}