{
  "is_class": true, 
  "library": "sklearn", 
  "compute_resources": {}, 
  "common_name": "Polynomial Features", 
  "id": "e730b393-8385-3c85-b0b9-4f1a4cb435bc", 
  "category": "preprocessing.data", 
  "source_code_unanalyzed": "https://github.com/scikit-learn/scikit-learn/blob/0.18.X/sklearn/preprocessing/data.py#L1139", 
  "parameters": [
    {
      "type": "integer", 
      "name": "degree", 
      "description": "The degree of the polynomial features. Default = 2. "
    }, 
    {
      "type": "boolean", 
      "name": "interaction_only", 
      "description": "If true, only interaction features are produced: features that are products of at most ``degree`` *distinct* input features (so not ``x[1] ** 2``, ``x[0] * x[2] ** 3``, etc.). "
    }, 
    {
      "type": "boolean", 
      "name": "include_bias", 
      "description": "If True (default), then include a bias column, the feature in which all polynomial powers are zero (i.e. a column of ones - acts as an intercept term in a linear model).  Examples -------- >>> X = np.arange(6).reshape(3, 2) >>> X array([[0, 1], [2, 3], [4, 5]]) >>> poly = PolynomialFeatures(2) >>> poly.fit_transform(X) array([[  1.,   0.,   1.,   0.,   0.,   1.], [  1.,   2.,   3.,   4.,   6.,   9.], [  1.,   4.,   5.,  16.,  20.,  25.]]) >>> poly = PolynomialFeatures(interaction_only=True) >>> poly.fit_transform(X) array([[  1.,   0.,   1.,   0.], [  1.,   2.,   3.,   6.], [  1.,   4.,   5.,  20.]]) "
    }
  ], 
  "tags": [
    "preprocessing", 
    "data"
  ], 
  "common_name_unanalyzed": "Polynomial Features", 
  "schema_version": 1.0, 
  "languages": [
    "python2.7"
  ], 
  "version": "0.18.1", 
  "build": [
    {
      "type": "pip", 
      "package": "scikit-learn"
    }
  ], 
  "description": "'Generate polynomial and interaction features.\n\nGenerate a new feature matrix consisting of all polynomial combinations\nof the features with degree less than or equal to the specified degree.\nFor example, if an input sample is two dimensional and of the form\n[a, b], the degree-2 polynomial features are [1, a, b, a^2, ab, b^2].\n", 
  "methods_available": [
    {
      "id": "sklearn.preprocessing.data.PolynomialFeatures.fit", 
      "description": "'\nCompute number of output features.\n'", 
      "parameters": [], 
      "name": "fit"
    }, 
    {
      "id": "sklearn.preprocessing.data.PolynomialFeatures.fit_transform", 
      "returns": {
        "shape": "n_samples, n_features_new", 
        "type": "numpy", 
        "name": "X_new", 
        "description": "Transformed array.  '"
      }, 
      "description": "'Fit to data, then transform it.\n\nFits transformer to X and y with optional parameters fit_params\nand returns a transformed version of X.\n", 
      "parameters": [
        {
          "shape": "n_samples, n_features", 
          "type": "numpy", 
          "name": "X", 
          "description": "Training set. "
        }, 
        {
          "shape": "n_samples", 
          "type": "numpy", 
          "name": "y", 
          "description": "Target values. "
        }
      ], 
      "name": "fit_transform"
    }, 
    {
      "id": "sklearn.preprocessing.data.PolynomialFeatures.get_feature_names", 
      "returns": {
        "type": "list", 
        "name": "output_feature_names", 
        "description": " '"
      }, 
      "description": "'\nReturn feature names for output features\n", 
      "parameters": [
        {
          "type": "list", 
          "optional": "true", 
          "name": "input_features", 
          "description": "String names for input features if available. By default, \"x0\", \"x1\", ... \"xn_features\" is used. "
        }
      ], 
      "name": "get_feature_names"
    }, 
    {
      "id": "sklearn.preprocessing.data.PolynomialFeatures.get_params", 
      "returns": {
        "type": "mapping", 
        "name": "params", 
        "description": "Parameter names mapped to their values. '"
      }, 
      "description": "'Get parameters for this estimator.\n", 
      "parameters": [
        {
          "type": "boolean", 
          "optional": "true", 
          "name": "deep", 
          "description": "If True, will return the parameters for this estimator and contained subobjects that are estimators. "
        }
      ], 
      "name": "get_params"
    }, 
    {
      "id": "sklearn.preprocessing.data.PolynomialFeatures.set_params", 
      "returns": {
        "name": "self", 
        "description": "\""
      }, 
      "description": "\"Set the parameters of this estimator.\n\nThe method works on simple estimators as well as on nested objects\n(such as pipelines). The latter have parameters of the form\n``<component>__<parameter>`` so that it's possible to update each\ncomponent of a nested object.\n", 
      "parameters": [], 
      "name": "set_params"
    }, 
    {
      "id": "sklearn.preprocessing.data.PolynomialFeatures.transform", 
      "returns": {
        "shape": "n_samples, NP", 
        "type": "np", 
        "name": "XP", 
        "description": "The matrix of features, where NP is the number of polynomial features generated from the combination of inputs. '"
      }, 
      "description": "'Transform data to polynomial features\n", 
      "parameters": [
        {
          "shape": "n_samples, n_features", 
          "type": "array-like", 
          "name": "X", 
          "description": "The data to transform, row by row. "
        }
      ], 
      "name": "transform"
    }
  ], 
  "learning_type": [
    "supervised"
  ], 
  "task_type": [
    "modeling"
  ], 
  "source_code": "https://github.com/scikit-learn/scikit-learn/blob/0.18.X/sklearn/preprocessing/data.py#L1139", 
  "category_unanalyzed": "preprocessing.data", 
  "name": "sklearn.preprocessing.data.PolynomialFeatures", 
  "team": "jpl", 
  "attributes": []
}